Place,Name,Sex,Event,Division,WeightClassKg,Equipment,BirthDate,BodyweightKg,Squat1Kg,Squat2Kg,Squat3Kg,Best3SquatKg,Bench1Kg,Bench2Kg,Bench3Kg,Best3BenchKg,Deadlift1Kg,Deadlift2Kg,Deadlift3Kg,Best3DeadliftKg,TotalKg
1,Anna Henzi,F,SBD,Open,57,Raw,1992-12-27,56.3,121,127.5,132.5,132.5,-85,85,90,90,135,142.5,150,150,372.5
2,Katja Keusch,F,SBD,Open,57,Raw,1997-11-04,54,80,85,-90,85,50,52.5,55,55,100,105,110,110,250
3,Sara Wildhaber,F,SBD,Open,57,Raw,1992-08-04,56.2,85,90,-92.5,90,42.5,-45,-45,42.5,-100,100,-105,100,232.5
1,Lauris Auch,F,SBD,Open,63,Raw,1997-06-11,61,127.5,132.5,137.5,137.5,75,80,83.5,83.5,140,147.5,152.5,152.5,373.5
2,Victoria Rimensberger,F,SBD,Open,63,Raw,1990-10-05,61.7,127.5,132.5,-137.5,132.5,65,-70,-70,65,155,-160,-160,155,352.5
3,Jennifer Meier,F,SBD,Open,63,Raw,1995-01-26,58.7,115,-120,120,120,65,70,75,75,125,132.5,140,140,335
4,Deborah Pungitore,F,SBD,Open,63,Raw,1990-07-27,61.6,110,117.5,122.5,122.5,65,70,-72.5,70,125,135,-142.5,135,327.5
5,Maria Latanioti,F,SBD,Open,63,Raw,1985-09-21,62.2,100,107.5,112.5,112.5,57.5,62.5,-65,62.5,130,140,-145,140,315
6,Rachael Camp,F,SBD,Open,63,Raw,1988-05-31,61.8,100,107.5,-112.5,107.5,57.5,62.5,65,65,120,127.5,132.5,132.5,305
7,Linda Gansner,F,SBD,Open,63,Raw,1997-07-19,61.8,95,105,-112.5,105,52.5,57.5,-62.5,57.5,130,140,-147.5,140,302.5
8,Laura Rettig,F,SBD,Open,63,Raw,1992-06-02,58,90,95,100,100,50,55,-57.5,55,112.5,122.5,130,130,285
9,Stephanie Brughelli,F,SBD,Open,63,Raw,1987-09-09,61.9,75,80,85,85,47.5,50,52.5,52.5,107.5,115,122.5,122.5,260
1,Andrea Marx,F,SBD,Open,72,Raw,1993-03-27,71.2,140,150,155,155,87.5,92.5,95,95,170,180,190,190,440
2,Anna Jonasch,F,SBD,Open,72,Raw,1988-10-03,71.2,145,155,157.5,157.5,62.5,67.5,72.5,72.5,160,170,-175,170,400
3,Cinzia Zeltner,F,SBD,Open,72,Raw,1985-04-16,63.4,107.5,115,120,120,55,57.5,60,60,145,155,162.5,162.5,342.5
4,Tamara Thoma,F,SBD,Open,72,Raw,1993-08-18,69.4,105,110,-112.5,110,-77.5,77.5,-80,77.5,135,145,-155,145,332.5
5,Ceyda Yildirim,F,SBD,Open,72,Raw,1996-08-15,68.5,115,120,-125,120,60,62.5,65,65,125,130,135,135,320
1,Jessica Butera,F,SBD,Open,84,Raw,1992-11-18,82.7,155,162.5,-167.5,162.5,-95,95,-97.5,95,162.5,175,185,185,442.5
2,Krystyna Waterhouse,F,SBD,Open,84,Raw,1995-05-14,83,150,162.5,-170,162.5,95,100,102.5,102.5,160,170,177.5,177.5,442.5
3,Malgorzata Becker,F,SBD,Open,84,Raw,1989-11-26,83.8,140,147.5,-152.5,147.5,85,90,-92.5,90,160,170,180.5,180.5,418
4,Tamara Stricker,F,SBD,Open,84,Raw,1994-05-19,82.6,145,152.5,157.5,157.5,-80,80,85,85,162.5,170,-180,170,412.5
5,Jasna Behaderovic,F,SBD,Open,84,Raw,1990-07-07,79.2,100,107.5,115,115,50,52.5,55,55,120,127.5,135,135,305
1,Mary Ekiru,F,SBD,Open,84+,Raw,1990-06-02,104.7,127.5,140,145,145,70,77.5,82.5,82.5,145,155,165,165,392.5
1,Janis Brunner,M,SBD,Open,59,Raw,1993-09-29,57.6,110,120,-130,120,92.5,-97.5,-97.5,92.5,150,160,172,172,384.5
1,Roman Eichenberger,M,SBD,Open,74,Raw,1996-09-21,72.1,160,170,-180,170,105,112.5,-115,112.5,180,190,-200,190,472.5
2,Alexandre Perret,M,SBD,Open,74,Raw,1991-06-01,67.6,100,110,115,115,105,112.5,-120,112.5,165,175,187.5,187.5,415
3,Luca Serino,M,SBD,Open,74,Raw,1996-02-26,71.4,110,120,-127.5,120,75,82.5,-85,82.5,125,135,145,145,347.5
1,Eddie Prizeman,M,SBD,Open,83,Raw,1986-11-07,82.4,225,240,250,250,160,170,175,175,245,265,-277.5,265,690
2,Raphael Sauta,M,SBD,Open,83,Raw,1994-11-18,81.6,210,220,230,230,165,172.5,175.5,175.5,245,260,270,270,675.5
3,Sven Sigrist,M,SBD,Open,83,Raw,1988-07-03,81.7,210,-222.5,222.5,222.5,137.5,145,150,150,235,250,262.5,262.5,635
4,Dominik Grob,M,SBD,Open,83,Raw,1995-02-02,82.3,202.5,-212.5,212.5,212.5,135,145,-152.5,145,225,235,240,240,597.5
5,Remo Schmid,M,SBD,Open,83,Raw,1997-07-05,80.8,180,190,-200,190,122.5,127.5,130,130,222.5,235,250,250,570
6,Andy Kreuchi,M,SBD,Open,83,Raw,1993-09-27,82.4,190,200,205,205,125,132.5,140,140,200,210,220,220,565
7,Max Becker,M,SBD,Open,83,Raw,1993-01-12,81,192.5,205,-212.5,205,135,142.5,-147.5,142.5,195,205,215,215,562.5
8,Cyril Dörfler,M,SBD,Open,83,Raw,1993-09-28,81,165,175,185,185,95,102.5,107.5,107.5,175,190,-202.5,190,482.5
9,Michel Stähli,M,SBD,Open,83,Raw,1993-08-02,76.5,152.5,162.5,-165,162.5,95,97.5,100,100,185,195,-202.5,195,457.5
DQ,Bogdan Krumov,M,SBD,Open,83,Raw,1981-05-01,82.5,-160,160,165,165,-120,-120,-125,,175,190,-207.5,190,
1,Sandro Gassner,M,SBD,Open,93,Raw,1995-09-17,90.7,210,220,230,230,125,135,145,145,240,255,270,270,645
2,Dennis Goodtzov,M,SBD,Open,93,Raw,1996-11-22,89.9,200,210,220,220,125,132.5,140,140,-250,260,-280,260,620
3,Sinan Meral,M,SBD,Open,93,Raw,1996-03-09,86.6,200,215,220,220,140,147.5,152.5,152.5,230,242.5,-257.5,242.5,615
4,Sascha Fischer,M,SBD,Open,93,Raw,1992-01-13,90.5,210,220,-230,220,-135,140,147.5,147.5,210,222.5,-230,222.5,590
5,Floris Endert,M,SBD,Open,93,Raw,1989-05-10,91.9,175,182.5,187.5,187.5,125,132.5,140,140,-225,235,245,245,572.5
6,Marc Grepper,M,SBD,Open,93,Raw,1989-03-20,92.3,195,-205,-205,195,135,145,-150,145,220,227.5,-232.5,227.5,567.5
7,Fabian Baumgartner,M,SBD,Open,93,Raw,1993-07-23,86.8,190,200,-212.5,200,127.5,135,-137.5,135,210,220,230,230,565
8,Silvano Senn,M,SBD,Open,93,Raw,1984-03-20,92,180,192.5,200,200,112.5,120,-127.5,120,225,235,242.5,242.5,562.5
9,Jonas Arnold,M,SBD,Open,93,Raw,1999-05-28,90.4,180,190,-200,190,107.5,112.5,117.5,117.5,202.5,215,220,220,527.5
10,Harold Herrera,M,SBD,Open,93,Raw,1988-04-28,90.9,-160,170,175,175,100,107.5,-110,107.5,225,235,240,240,522.5
11,Leon Backwinkel,M,SBD,Open,93,Raw,1992-03-28,91.8,160,170,175,175,130,135,140,140,180,195,205,205,520
12,Vivien Olivier,M,SBD,Open,93,Raw,1995-07-22,92.7,185,-190,-190,185,100,110,115,115,215,-225,-225,215,515
13,Lorenz Lehmann,M,SBD,Open,93,Raw,1983-08-02,84.3,150,157.5,-165,157.5,110,115,-120,115,220,230,-237.5,230,502.5
14,David Burgunder,M,SBD,Open,93,Raw,1984-06-08,87.5,160,170,-180,170,90,-97.5,-97.5,90,200,207.5,212.5,212.5,472.5
15,Lukas Frey,M,SBD,Open,93,Raw,1994-08-28,83.4,132.5,137.5,145,145,82.5,87.5,90,90,190,205,217.5,217.5,452.5
1,Rene Caky,M,SBD,Open,105,Raw,2000-11-06,99.2,240,260,267.5,267.5,180,190,-200,190,280,300,310,310,767.5
2,Ramon Gysin,M,SBD,Open,105,Raw,1983-08-22,103.7,250,265,280,280,155,162.5,-165,162.5,270,280,-295,280,722.5
3,Luca Cirone,M,SBD,Open,105,Raw,1986-12-14,104,215,225,235,235,-167.5,170,-180,170,270,285,295,295,700
4,Philipp Nieberle,M,SBD,Open,105,Raw,1993-10-29,99,220,235,240,240,140,-150,-150,140,260,280,-300,280,660
5,Jim Freid,M,SBD,Open,105,Raw,1994-09-27,99.6,200,217.5,225,225,145,150,-155,150,250,270,282.5,282.5,657.5
6,Tom Thoma,M,SBD,Open,105,Raw,1988-02-25,102.2,205,215,-230,215,147.5,-152.5,-157.5,147.5,250,260,265,265,627.5
7,Daniele Pola,M,SBD,Open,105,Raw,1997-10-10,102.8,-190,200,215,215,150,157.5,162.5,162.5,215,230,240,240,617.5
8,Juan Antonio Pinillo,M,SBD,Open,105,Raw,1991-09-20,97.6,200,-215,-215,200,140,150,-157.5,150,230,245,265,265,615
9,Claudio von Planta,M,SBD,Open,105,Raw,1990-12-19,100.7,215,225,-230,225,132.5,135,,135,225,235,242.5,242.5,602.5
10,Tobias von der Brelje,M,SBD,Open,105,Raw,1989-03-22,101.6,180,190,200,200,145,152.5,-160,152.5,220,235,245,245,597.5
DQ,Steven Meier,M,SBD,Open,105,Raw,1990-12-08,104.1,265,280,292.5,292.5,160,170,177.5,177.5,-252.5,-252.5,-252.5,,
DQ,Sascha Kohlmüller,M,SBD,Open,105,Raw,1994-02-10,102.5,195,207.5,220,220,-130,135,-142.5,135,-240,-240,-240,,
1,Vladimir Mbassi,M,SBD,Open,120,Raw,1990-12-20,109.1,245,257.5,270,270,212.5,220,227.5,227.5,307.5,325,340,340,837.5
2,Björn Barkow,M,SBD,Open,120,Raw,1980-03-16,106.5,185,-195,195,195,-135,140,150,150,210,220,230,230,575
3,Patrick Thöny,M,SBD,Open,120,Raw,1997-03-29,105.2,172.5,-180,180,180,117.5,125,-130,125,167.5,177.5,190,190,495
4,Olivier Magloire,M,SBD,Open,120,Raw,1991-02-11,110.7,140,150,157.5,157.5,120,127.5,130,130,180,190,200,200,487.5
1,Nikola Mitrovic,M,SBD,Open,120+,Raw,1990-12-19,142.4,192.5,202.5,212.5,212.5,95,100,105,105,227.5,240,255,255,572.5
