Division,WeightClassKg,Place,Name,Team,BodyweightKg,Best3SquatKg,Best3BenchKg,Best3DeadliftKg,TotalKg,Equipment,Event,Sex
Boys,51.71,1,Jorge Saldana,Natalia,51.26,149.69,97.52,170.1,417.3,Single-ply,SBD,M
Boys,51.71,2,Michael Mitchell,San Antonio Southside,50.71,102.06,61.23,142.88,306.17,Single-ply,SBD,M
Boys,51.71,3,Manuel Saldana,Natalia,50.71,102.06,54.43,122.47,278.96,Single-ply,SBD,M
Boys,55.79,1,Oziel Padilla,Natalia,52.16,136.08,68.04,149.69,353.8,Single-ply,SBD,M
Boys,55.79,2,Carlos Ocampo,Natalia,55.07,120.2,68.04,156.49,344.73,Single-ply,SBD,M
Boys,59.87,3,Orlando Gonzales,Natalia,55.88,113.4,74.84,149.69,337.93,Single-ply,SBD,M
Boys,55.79,4,Raul Ocampo,Natalia,55.52,113.4,61.23,138.35,312.98,Single-ply,SBD,M
Boys,55.79,5,John Dexter #2,Bandera,54.43,108.86,77.11,106.59,292.57,Single-ply,SBD,M
Boys,59.87,1,Phil Alvarado,Blanco,57.06,154.22,106.59,158.76,419.57,Single-ply,SBD,M
Boys,59.87,2,Eddie Torres #1,Blanco,57.33,136.08,99.79,158.76,394.63,Single-ply,SBD,M
Boys,59.87,3,Raul Garcia,Cotulla,56.43,108.86,83.91,145.15,337.93,Single-ply,SBD,M
Boys,59.87,4,Dylan Tesch,Blanco,59.06,108.86,77.11,124.74,310.71,Single-ply,SBD,M
Boys,67.13,5,Jacob Acosta,San Marcos,60.06,92.99,68.04,111.13,272.16,Single-ply,SBD,M
Boys,59.87,DQ,Kade Lopez,San Antonio Southside,57.97,145.15,,,,Single-ply,SBD,M
Boys,67.13,1,Christian Munoz,Cotulla,65.68,124.74,83.91,138.35,347,Single-ply,SBD,M
Boys,67.13,2,Mikal Luna,Cotulla,61.14,108.86,77.11,136.08,322.05,Single-ply,SBD,M
Boys,67.13,3,Tristan Watson,Bandera,61.05,115.67,72.57,124.74,312.98,Single-ply,SBD,M
Boys,67.13,4,Jesse Zimmell,Bandera,61.87,108.86,72.57,127.01,308.44,Single-ply,SBD,M
Boys,67.13,5,Winston Hearn,Cotulla,66.32,90.72,70.31,145.15,306.17,Single-ply,SBD,M
Boys,67.13,6,Angel Martinez #5,Cotulla,63.23,120.2,70.31,113.4,303.91,Single-ply,SBD,M
Boys,67.13,7,Bernardo Flores,Cotulla,66.68,79.38,63.5,124.74,267.62,Single-ply,SBD,M
Boys,67.13,8,Zach Markgraf,Bandera,60.24,79.38,54.43,111.13,244.94,Single-ply,SBD,M
Boys,74.84,1,Steven Nicholson,Natalia,73.94,174.63,86.18,181.44,442.25,Single-ply,SBD,M
Boys,74.84,2,Chase Horton,Blanco,71.58,163.29,86.18,142.88,392.36,Single-ply,SBD,M
Boys,82.1,3,Alex Paredes,Natalia,75.02,161.03,70.31,151.95,383.29,Single-ply,SBD,M
Boys,74.84,4,Tim Mendoza,San Marcos,72.76,70.31,52.16,102.06,224.53,Single-ply,SBD,M
Boys,82.1,1,Alex Diaz #3,San Antonio Southside,78.74,204.12,111.13,219.99,535.24,Single-ply,SBD,M
Boys,82.1,2,Alex Juarez,Blanco,76.84,183.7,133.81,188.24,505.76,Single-ply,SBD,M
Boys,82.1,3,Dustin Del Toro,Cotulla,80.29,181.44,113.4,204.12,498.95,Single-ply,SBD,M
Boys,82.1,4,Jourden Stanley,Marion,78.47,167.83,106.59,188.24,462.66,Single-ply,SBD,M
Boys,82.1,5,Brandon Hand,Comal Canyon,75.57,165.56,111.13,151.95,428.64,Single-ply,SBD,M
Boys,82.1,6,Mason Garcia #2,Comal Canyon,76.84,165.56,97.52,163.29,426.38,Single-ply,SBD,M
Boys,82.1,7,Sergio Sanchez,Natalia,75.66,136.08,77.11,151.95,365.14,Single-ply,SBD,M
Boys,82.1,8,Rene Velasquez,San Marcos,75.66,113.4,70.31,111.13,294.84,Single-ply,SBD,M
Boys,82.1,9,Gavin Hernandez,San Marcos,81.56,61.23,61.23,97.52,219.99,Single-ply,SBD,M
Boys,89.81,1,Sergio Zuniga,San Antonio Southside,84.37,215.46,136.08,204.12,555.65,Single-ply,SBD,M
Boys,89.81,2,Aikman Elrod,Blanco,88.81,181.44,115.67,165.56,462.66,Single-ply,SBD,M
Boys,89.81,3,Casey Nagy,Comal Canyon,85.82,133.81,124.74,170.1,428.64,Single-ply,SBD,M
Boys,89.81,4,Lorenzo Washington,Marion,87.72,131.54,106.59,149.69,387.82,Single-ply,SBD,M
Boys,89.81,5,Gus Martinez,Blanco,82.64,138.35,83.91,156.49,378.75,Single-ply,SBD,M
Boys,89.81,6,Adam Hernandez,Comal Canyon,85.37,92.99,70.31,111.13,274.42,Single-ply,SBD,M
Boys,99.79,1,Trevor Luckemeyer,Comal Canyon,94.08,249.48,133.81,219.99,603.28,Single-ply,SBD,M
Boys,99.79,2,Mason LeBlanc,Blanco,98.25,242.67,102.06,208.65,553.38,Single-ply,SBD,M
Boys,99.79,3,Raphael Dehoyos,Marion,94.53,185.97,133.81,213.19,532.97,Single-ply,SBD,M
Boys,99.79,4,David Martinez #15,Natalia,92.35,154.22,74.84,149.69,378.75,Single-ply,SBD,M
Boys,99.79,5,Jose Hernandez #5,San Marcos,91.9,111.13,79.38,129.27,319.78,Single-ply,SBD,M
Boys,109.77,1,James McFarlin,Blanco,105.69,136.08,90.72,149.69,376.48,Single-ply,SBD,M
Boys,109.77,2,Emiliano Hinojosa,Cotulla,109.13,111.13,86.18,161.03,358.34,Single-ply,SBD,M
Boys,109.77,3,Matt Booth,Comal Canyon,103.15,124.74,79.38,145.15,349.27,Single-ply,SBD,M
Boys,124.74,DQ,Sam DeFazio,Comal Canyon,109.86,,,,,Single-ply,SBD,M
Boys,109.77,DQ,Ermillo Escamilla,Natalia,102.51,133.81,68.04,,,Single-ply,SBD,M
Boys,124.74,1,Oscar Flores,Comal Canyon,123.65,224.53,147.42,219.99,591.94,Single-ply,SBD,M
Boys,124.74,2,Andre Hernandez,Natalia,115.39,238.14,117.93,204.12,560.19,Single-ply,SBD,M
Boys,124.74,3,Hunter Goodman,Blanco,119.48,226.8,120.2,210.92,557.92,Single-ply,SBD,M
Boys,124.74,4,Caesar Salazar,Marion,119.57,142.88,117.93,161.03,421.84,Single-ply,SBD,M
Boys,124.74,5,Sonny Pacheco,Natalia,112.94,136.08,113.4,165.56,415.04,Single-ply,SBD,M
Boys,124.74,6,Dylan Sillero,San Marcos,114.4,142.88,90.72,161.03,394.63,Single-ply,SBD,M
Boys,124.74,7,Christian Guiterrez,Marion,122.65,149.69,102.06,142.88,394.63,Single-ply,SBD,M
Boys,124.74,8,Tristen Bronson,Comal Canyon,113.13,92.99,61.23,147.42,301.64,Single-ply,SBD,M
Boys,124.74+,1,Ray Navarro,Natalia,130.63,249.48,97.52,199.58,546.58,Single-ply,SBD,M
Boys,124.74+,2,Andrew Bachman,Bandera,130.63,210.92,120.2,188.24,519.36,Single-ply,SBD,M
Boys,124.74+,3,Kenneth Sallee,Natalia,133.63,181.44,106.59,172.37,460.4,Single-ply,SBD,M
Boys,124.74+,4,Nick Dela Rosa,San Marcos,129.91,108.86,63.5,120.2,292.57,Single-ply,SBD,M
