Place,Name,Sex,BirthDate,State,Equipment,Division,BodyweightKg,WeightClassKg,Squat1Kg,Squat2Kg,Squat3Kg,Best3SquatKg,Bench1Kg,Bench2Kg,Bench3Kg,Bench4Kg,Best3BenchKg,Deadlift1Kg,Deadlift2Kg,Deadlift3Kg,Deadlift4Kg,Best3DeadliftKg,TotalKg,Event,Tested
1,Michelle Briere,F,1982-02-18,ON,Raw,M40-44,65.8,67.5,135,142,-147.5,142,-70,75,77.5,,77.5,170,180,-182.5,,180,399.5,SBD,Yes
1,Jenny Stevenson,F,1978-12-22,ON,Raw,M40-44,71.65,75,107.5,110,115,115,57.5,62.5,67.5,,67.5,117.5,127.5,-132.5,,127.5,310,SBD,Yes
1,Rachel Moore,F,1990-04-18,ON,Raw,Open,56.9,60,102.5,110,112.5,112.5,65,70,-72.5,,70,115,120,125,,125,307.5,SBD,Yes
1,Taylor Woods,F,1994-09-26,ON,Raw,Open,67.15,67.5,180,185,190,190,100,106,-110,,106,210,220,227.5,,227.5,523.5,SBD,Yes
2,Kelly Hewitt,F,1989-10-27,ON,Raw,Open,67.45,67.5,135,145,152.5,152.5,72.5,75,80,,80,150,160,167.5,,167.5,400,SBD,Yes
1,Sierra-Lynn Moreira,F,1998-07-29,ON,Raw,Open,69.65,75,125,132.5,137.5,137.5,60,65,-70,,65,155,162.5,167.5,,167.5,370,SBD,Yes
2,Shyann Bouchard,F,1991-04-14,ON,Raw,Open,69.1,75,87.5,95,102.5,102.5,45,-50,55,,55,120,130,137.5,,137.5,295,SBD,Yes
1,Marie Mascoll,F,1998-03-01,ON,Raw,Open,79.6,82.5,132.5,140,147.5,147.5,80,85,90,,90,152.5,160,170,,170,407.5,SBD,Yes
DQ,Steph Spencer,F,1975-04-21,ON,Raw,Open,81.3,82.5,92.5,97.5,105,105,-50.5,-52.5,-52.5,,,135,140,145,147.5,145,,SBD,Yes
1,Jessica Cuabu,F,1997-04-18,ON,Raw,Open,87.05,90,130,137.5,142.5,142.5,60,62.5,-65,,62.5,130,137.5,145,,145,350,SBD,Yes
1,Alexandra Cecchin,F,1993-11-05,ON,Raw,Open,139.35,140,105,120,127.5,127.5,65,72.5,77.5,,77.5,110,125,140,,140,345,SBD,Yes
1,Makenzy Canham,F,2008-08-21,ON,Raw,J14-16,103.25,110,132.5,142.5,151,151,57.5,62.5,67.5,,67.5,142.5,160,-170,,160,378.5,SBD,Yes
2,Chayse Jans,F,2007-03-18,ON,Raw,J14-16,95.45,100,110,120,-130,120,45,50,-57.5,,50,140,150,160,,160,330,SBD,Yes
1,Tabitha MacDonald,F,1990-05-09,ON,Raw,Open,135.6,140,,,,,67.5,80,85,,85,,,,,,85,B,Yes
1,Mowie Casilla,M,2001-07-18,ON,Raw,J20-23,67.35,67.5,-175,175,185,185,102.5,115,125,,125,227.52,240,247.5,250,247.5,557.5,SBD,Yes
2,Aden Li,M,1999-12-05,ON,Raw,J20-23,65.05,67.5,172.5,187.5,192.5,192.5,97.5,107.5,112.5,,112.5,205,220,-230,,220,525,SBD,Yes
1,Youssef Daoud,M,2002-03-01,ON,Raw,J20-23,82.4,82.5,180,195,205,205,120,127.5,-132.5,,127.5,222.5,242.5,250,,250,582.5,SBD,Yes
1,Jordan Courtney,M,1998-05-15,ON,Raw,Open,86.2,90,175,185,-195,185,122.5,130,135,,135,220,232.5,245,,245,565,SBD,Yes
1,Aaron Mabbott,M,1995-03-10,ON,Raw,Open,98.1,100,205,217.5,227.5,227.5,142.5,147.5,152.5,,152.5,270,287.5,-297.5,,287.5,667.5,SBD,Yes
2,Griffin Ireland,M,1996-04-16,ON,Raw,Open,99.65,100,202.5,210,217.5,217.5,110,115,-122.5,,115,220,232.5,245,,245,577.5,SBD,Yes
1,Ian Saunders #1,M,1994-01-03,ON,Raw,Open,109.15,110,210,217.5,222.5,222.5,130,135,140,,140,240,257.5,272.5,,272.5,635,SBD,Yes
1,Joey Mleczko,M,1984-12-13,ON,Raw,S35-39,74.55,75,,,,,72.5,80.5,-85,,80.5,187.5,195,210,212.5,210,290.5,BD,Yes
1,Jeff Pearce,M,1985-11-19,ON,Raw,S35-39,145.85,140+,,,,,150,-165,182.5,-190,182.5,,,,,,182.5,B,Yes
